{
  "26161411700" :
  {
    "GIDTR" : 26161411700,
    "State" : 26,
    "State_name" : "Michigan",
    "County" : 161,
    "County_name" : "Washtenaw County",
    "Tract" : 411700,
    "Flag" : "",
    "Num_BGs_in_Tract" : 3,
    "LAND_AREA" : 0.444,
    "AIAN_LAND" : 0,
    "URBANIZED_AREA_POP_CEN_2010" : 2291,
    "URBAN_CLUSTER_POP_CEN_2010" : 0,
    "RURAL_POP_CEN_2010" : 0,
    "Tot_Population_CEN_2010" : 2291,
    "Tot_Population_ACS_09_13" : 2238,
    "Tot_Population_ACSMOE_09_13" : 243,
    "Males_CEN_2010" : 1127,
    "Males_ACS_09_13" : 1078,
    "Males_ACSMOE_09_13" : 131,
    "Females_CEN_2010" : 1164,
    "Females_ACS_09_13" : 1160,
    "Females_ACSMOE_09_13" : 159,
    "Pop_under_5_CEN_2010" : 153,
    "Pop_under_5_ACS_09_13" : 114,
    "Pop_under_5_ACSMOE_09_13" : 69,
    "Pop_5_17_CEN_2010" : 388,
    "Pop_5_17_ACS_09_13" : 338,
    "Pop_5_17_ACSMOE_09_13" : 57,
    "Pop_18_24_CEN_2010" : 162,
    "Pop_18_24_ACS_09_13" : 126,
    "Pop_18_24_ACSMOE_09_13" : 126,
    "Pop_25_44_CEN_2010" : 664,
    "Pop_25_44_ACS_09_13" : 684,
    "Pop_25_44_ACSMOE_09_13" : 129,
    "Pop_45_64_CEN_2010" : 614,
    "Pop_45_64_ACS_09_13" : 657,
    "Pop_45_64_ACSMOE_09_13" : 141,
    "Pop_65plus_CEN_2010" : 310,
    "Pop_65plus_ACS_09_13" : 319,
    "Pop_65plus_ACSMOE_09_13" : 34,
    "Tot_GQ_CEN_2010" : 0,
    "Inst_GQ_CEN_2010" : 0,
    "Non_Inst_GQ_CEN_2010" : 0,
    "Hispanic_CEN_2010" : 94,
    "Hispanic_ACS_09_13" : 146,
    "Hispanic_ACSMOE_09_13" : 108,
    "NH_White_alone_CEN_2010" : 1668,
    "NH_White_alone_ACS_09_13" : 1615,
    "NH_White_alone_ACSMOE_09_13" : 173,
    "NH_Blk_alone_CEN_2010" : 417,
    "NH_Blk_alone_ACS_09_13" : 404,
    "NH_Blk_alone_ACSMOE_09_13" : 135,
    "NH_AIAN_alone_CEN_2010" : 5,
    "NH_AIAN_alone_ACS_09_13" : 0,
    "NH_AIAN_alone_ACSMOE_09_13" : 10,
    "NH_Asian_alone_CEN_2010" : 15,
    "NH_Asian_alone_ACS_09_13" : 0,
    "NH_Asian_alone_ACSMOE_09_13" : 10,
    "NH_NHOPI_alone_CEN_2010" : 0,
    "NH_NHOPI_alone_ACS_09_13" : 0,
    "NH_NHOPI_alone_ACSMOE_09_13" : 10,
    "NH_SOR_alone_CEN_2010" : 10,
    "NH_SOR_alone_ACS_09_13" : 0,
    "NH_SOR_alone_ACSMOE_09_13" : 10,
    "Pop_5yrs_Over_ACS_09_13" : 2124,
    "Pop_5yrs_Over_ACSMOE_09_13" : 206,
    "Othr_Lang_ACS_09_13" : 90,
    "Othr_Lang_ACSMOE_09_13" : 51,
    "Age5p_Only_English_ACS_09_13" : 2034,
    "Age5p_Only_English_ACSMOE_09_13" : 215,
    "Age5p_Spanish_ACS_09_13" : 14,
    "Age5p_Spanish_ACSMOE_09_13" : 19,
    "Age5p_French_ACS_09_13" : 2,
    "Age5p_French_ACSMOE_09_13" : 6,
    "Age5p_FrCreole_ACS_09_13" : 0,
    "Age5p_FrCreole_ACSMOE_09_13" : 10,
    "Age5p_Italian_ACS_09_13" : 0,
    "Age5p_Italian_ACSMOE_09_13" : 10,
    "Age5p_Portuguese_ACS_09_13" : 0,
    "Age5p_Portuguese_ACSMOE_09_13" : 10,
    "Age5p_German_ACS_09_13" : 0,
    "Age5p_German_ACSMOE_09_13" : 10,
    "Age5p_Yiddish_ACS_09_13" : 0,
    "Age5p_Yiddish_ACSMOE_09_13" : 10,
    "Age5p_WGerman_ACS_09_13" : 0,
    "Age5p_WGerman_ACSMOE_09_13" : 10,
    "Age5p_Scandinavian_ACS_09_13" : 0,
    "Age5p_Scandinavian_ACSMOE_09_13" : 10,
    "Age5p_Greek_ACS_09_13" : 0,
    "Age5p_Greek_ACSMOE_09_13" : 10,
    "Age5p_Russian_ACS_09_13" : 0,
    "Age5p_Russian_ACSMOE_09_13" : 10,
    "Age5p_Polish_ACS_09_13" : 0,
    "Age5p_Polish_ACSMOE_09_13" : 10,
    "Age5p_SRBCroatian_ACS_09_13" : 0,
    "Age5p_SRBCroatian_ACSMOE_09_13" : 10,
    "Age5p_OthSlavic_ACS_09_13" : 6,
    "Age5p_OthSlavic_ACSMOE_09_13" : 9,
    "Age5p_Armenian_ACS_09_13" : 0,
    "Age5p_Armenian_ACSMOE_09_13" : 10,
    "Age5p_Persian_ACS_09_13" : 0,
    "Age5p_Persian_ACSMOE_09_13" : 10,
    "Age5p_Gujarati_ACS_09_13" : 0,
    "Age5p_Gujarati_ACSMOE_09_13" : 10,
    "Age5p_Hindi_ACS_09_13" : 0,
    "Age5p_Hindi_ACSMOE_09_13" : 10,
    "Age5p_Urdu_ACS_09_13" : 0,
    "Age5p_Urdu_ACSMOE_09_13" : 10,
    "Age5p_OthIndic_ACS_09_13" : 0,
    "Age5p_OthIndic_ACSMOE_09_13" : 10,
    "Age5p_OthEuro_ACS_09_13" : 21,
    "Age5p_OthEuro_ACSMOE_09_13" : 26,
    "Age5p_Chinese_ACS_09_13" : 0,
    "Age5p_Chinese_ACSMOE_09_13" : 10,
    "Age5p_Japanese_ACS_09_13" : 0,
    "Age5p_Japanese_ACSMOE_09_13" : 10,
    "Age5p_Korean_ACS_09_13" : 0,
    "Age5p_Korean_ACSMOE_09_13" : 10,
    "Age5p_Cambodian_ACS_09_13" : 0,
    "Age5p_Cambodian_ACSMOE_09_13" : 10,
    "Age5p_Hmong_ACS_09_13" : 0,
    "Age5p_Hmong_ACSMOE_09_13" : 10,
    "Age5p_Thai_ACS_09_13" : 0,
    "Age5p_Thai_ACSMOE_09_13" : 10,
    "Age5p_Laotian_ACS_09_13" : 0,
    "Age5p_Laotian_ACSMOE_09_13" : 10,
    "Age5p_Vietnamese_ACS_09_13" : 0,
    "Age5p_Vietnamese_ACSMOE_09_13" : 10,
    "Age5p_OthAsian_ACS_09_13" : 0,
    "Age5p_OthAsian_ACSMOE_09_13" : 10,
    "Age5p_Tagalog_ACS_09_13" : 0,
    "Age5p_Tagalog_ACSMOE_09_13" : 10,
    "Age5p_OthPacIsl_ACS_09_13" : 0,
    "Age5p_OthPacIsl_ACSMOE_09_13" : 10,
    "Age5p_Navajo_ACS_09_13" : 0,
    "Age5p_Navajo_ACSMOE_09_13" : 10,
    "Age5p_NativeNAm_ACS_09_13" : 0,
    "Age5p_NativeNAm_ACSMOE_09_13" : 10,
    "Age5p_Hungarian_ACS_09_13" : 0,
    "Age5p_Hungarian_ACSMOE_09_13" : 10,
    "Age5p_Arabic_ACS_09_13" : 0,
    "Age5p_Arabic_ACSMOE_09_13" : 10,
    "Age5p_Hebrew_ACS_09_13" : 0,
    "Age5p_Hebrew_ACSMOE_09_13" : 10,
    "Age5p_African_ACS_09_13" : 0,
    "Age5p_African_ACSMOE_09_13" : 10,
    "Age5p_OthUnSp_ACS_09_13" : 0,
    "Age5p_OthUnSp_ACSMOE_09_13" : 10,
    "Pop_25yrs_Over_ACS_09_13" : 1660,
    "Pop_25yrs_Over_ACSMOE_09_13" : 169,
    "Not_HS_Grad_ACS_09_13" : 241,
    "Not_HS_Grad_ACSMOE_09_13" : 138,
    "College_ACS_09_13" : 408,
    "College_ACSMOE_09_13" : 115,
    "Pov_Univ_ACS_09_13" : 2234,
    "Pov_Univ_ACSMOE_09_13" : 243,
    "Prs_Blw_Pov_Lev_ACS_09_13" : 161,
    "Prs_Blw_Pov_Lev_ACSMOE_09_13" : 94,
    "One_Health_Ins_ACS_09_13" : 1471,
    "One_Health_Ins_ACSMOE_09_13" : 163,
    "Two_Plus_Health_Ins_ACS_09_13" : 485,
    "Two_Plus_Health_Ins_ACSMOE_09_13" : 98,
    "No_Health_Ins_ACS_09_13" : 282,
    "No_Health_Ins_ACSMOE_09_13" : 113,
    "Civ_labor_16plus_ACS_09_13" : 1130,
    "Civ_labor_16plus_ACSMOE_09_13" : 116,
    "Civ_emp_16plus_ACS_09_13" : 962,
    "Civ_emp_16plus_ACSMOE_09_13" : 108,
    "Civ_unemp_16plus_ACS_09_13" : 168,
    "Civ_unemp_16plus_ACSMOE_09_13" : 65,
    "Civ_labor_16_24_ACS_09_13" : 95,
    "Civ_labor_16_24_ACSMOE_09_13" : 57,
    "Civ_emp_16_24_ACS_09_13" : 65,
    "Civ_emp_16_24_ACSMOE_09_13" : 50,
    "Civ_unemp_16_24_ACS_09_13" : 30,
    "Civ_unemp_16_24_ACSMOE_09_13" : 30,
    "Civ_labor_25_44_ACS_09_13" : 567,
    "Civ_labor_25_44_ACSMOE_09_13" : 111,
    "Civ_emp_25_44_ACS_09_13" : 507,
    "Civ_emp_25_44_ACSMOE_09_13" : 104,
    "Civ_unemp_25_44_ACS_09_13" : 60,
    "Civ_unemp_25_44_ACSMOE_09_13" : 41,
    "Civ_labor_45_64_ACS_09_13" : 443,
    "Civ_labor_45_64_ACSMOE_09_13" : 94,
    "Civ_emp_45_64_ACS_09_13" : 376,
    "Civ_emp_45_64_ACSMOE_09_13" : 89,
    "Civ_unemp_45_64_ACS_09_13" : 67,
    "Civ_unemp_45_64_ACSMOE_09_13" : 51,
    "Civ_labor_65plus_ACS_09_13" : 25,
    "Civ_labor_65plus_ACSMOE_09_13" : 24,
    "Civ_emp_65plus_ACS_09_13" : 14,
    "Civ_emp_65plus_ACSMOE_09_13" : 17,
    "Civ_unemp_65plus_ACS_09_13" : 11,
    "Civ_unemp_65plus_ACSMOE_09_13" : 20,
    "Pop_1yr_Over_ACS_09_13" : 2234,
    "Pop_1yr_Over_ACSMOE_09_13" : 243,
    "Diff_HU_1yr_Ago_ACS_09_13" : 262,
    "Diff_HU_1yr_Ago_ACSMOE_09_13" : 133,
    "Born_US_ACS_09_13" : 2166,
    "Born_US_ACSMOE_09_13" : 243,
    "Born_foreign_ACS_09_13" : 72,
    "Born_foreign_ACSMOE_09_13" : 37,
    "US_Cit_Nat_ACS_09_13" : 44,
    "US_Cit_Nat_ACSMOE_09_13" : 32,
    "NON_US_Cit_ACS_09_13" : 28,
    "NON_US_Cit_ACSMOE_09_13" : 23,
    "ENG_VW_SPAN_ACS_09_13" : 0,
    "ENG_VW_SPAN_ACSMOE_09_13" : 10,
    "ENG_VW_INDO_EURO_ACS_09_13" : 15,
    "ENG_VW_INDO_EURO_ACSMOE_09_13" : 16,
    "ENG_VW_API_ACS_09_13" : 0,
    "ENG_VW_API_ACSMOE_09_13" : 10,
    "ENG_VW_OTHER_ACS_09_13" : 0,
    "ENG_VW_OTHER_ACSMOE_09_13" : 10,
    "ENG_VW_ACS_09_13" : 15,
    "ENG_VW_ACSMOE_09_13" : 19,
    "Rel_Family_HHDS_CEN_2010" : 615,
    "Rel_Family_HHD_ACS_09_13" : 613,
    "Rel_Family_HHD_ACSMOE_09_13" : 73,
    "MrdCple_Fmly_HHD_CEN_2010" : 431,
    "MrdCple_Fmly_HHD_ACS_09_13" : 438,
    "MrdCple_Fmly_HHD_ACSMOE_09_13" : 52,
    "Not_MrdCple_HHD_CEN_2010" : 476,
    "Not_MrdCple_HHD_ACS_09_13" : 419,
    "Not_MrdCple_HHD_ACSMOE_09_13" : 92,
    "Female_No_HB_CEN_2010" : 127,
    "Female_No_HB_ACS_09_13" : 144,
    "Female_No_HB_ACSMOE_09_13" : 68,
    "NonFamily_HHD_CEN_2010" : 292,
    "NonFamily_HHD_ACS_09_13" : 244,
    "NonFamily_HHD_ACSMOE_09_13" : 58,
    "Sngl_Prns_HHD_CEN_2010" : 228,
    "Sngl_Prns_HHD_ACS_09_13" : 189,
    "Sngl_Prns_HHD_ACSMOE_09_13" : 50,
    "HHD_PPL_Und_18_CEN_2010" : 283,
    "HHD_PPL_Und_18_ACS_09_13" : 257,
    "HHD_PPL_Und_18_ACSMOE_09_13" : 66,
    "Tot_Prns_in_HHD_CEN_2010" : 2291,
    "Tot_Prns_in_HHD_ACS_09_13" : 2238,
    "Tot_Prns_in_HHD_ACSMOE_09_13" : 243,
    "Rel_Child_Under_6_CEN_2010" : 132,
    "Rel_Child_Under_6_ACS_09_13" : 96,
    "Rel_Child_Under_6_ACSMOE_09_13" : 61,
    "HHD_Moved_in_ACS_09_13" : 67,
    "HHD_Moved_in_ACSMOE_09_13" : 44,
    "PUB_ASST_INC_ACS_09_13" : 31,
    "PUB_ASST_INC_ACSMOE_09_13" : 37,
    "Med_HHD_Inc_ACS_09_13" : "$58,160",
    "Med_HHD_Inc_ACSMOE_09_13" : "$10,922",
    "Aggregate_HH_INC_ACS_09_13" : "$56,886,400",
    "Aggregate_HH_INC_ACSMOE_09_13" : "$6,116,094",
    "Tot_Housing_Units_CEN_2010" : 946,
    "Tot_Housing_Units_ACS_09_13" : 944,
    "Tot_Housing_Units_ACSMOE_09_13" : 29,
    "Tot_Occp_Units_CEN_2010" : 907,
    "Tot_Occp_Units_ACS_09_13" : 857,
    "Tot_Occp_Units_ACSMOE_09_13" : 63,
    "Tot_Vacant_Units_CEN_2010" : 39,
    "Tot_Vacant_Units_ACS_09_13" : 87,
    "Tot_Vacant_Units_ACSMOE_09_13" : 55,
    "Renter_Occp_HU_CEN_2010" : 86,
    "Renter_Occp_HU_ACS_09_13" : 120,
    "Renter_Occp_HU_ACSMOE_09_13" : 50,
    "Owner_Occp_HU_CEN_2010" : 821,
    "Owner_Occp_HU_ACS_09_13" : 737,
    "Owner_Occp_HU_ACSMOE_09_13" : 70,
    "Single_Unit_ACS_09_13" : 923,
    "Single_Unit_ACSMOE_09_13" : 44,
    "MLT_U2_9_STRC_ACS_09_13" : 0,
    "MLT_U2_9_STRC_ACSMOE_09_13" : 10,
    "MLT_U10p_ACS_09_13" : 0,
    "MLT_U10p_ACSMOE_09_13" : 10,
    "Mobile_Homes_ACS_09_13" : 21,
    "Mobile_Homes_ACSMOE_09_13" : 28,
    "Crowd_Occp_U_ACS_09_13" : 0,
    "Crowd_Occp_U_ACSMOE_09_13" : 10,
    "Occp_U_NO_PH_SRVC_ACS_09_13" : 10,
    "Occp_U_NO_PH_SRVC_ACSMOE_09_13" : 16,
    "No_Plumb_ACS_09_13" : 0,
    "No_Plumb_ACSMOE_09_13" : 10,
    "Recent_Built_HU_ACS_09_13" : 0,
    "Recent_Built_HU_ACSMOE_09_13" : 10,
    "Med_House_value_ACS_09_13" : "$97,800",
    "Med_House_value_ACSMOE_09_13" : "$6,226",
    "Aggr_House_Value_ACS_09_13" : "$72,863,600",
    "Aggr_House_Value_ACSMOE_09_13" : "$8,888,238",
    "MailBack_Area_Count_CEN_2010" : 946,
    "TEA_Mail_Out_Mail_Back_CEN_2010" : 946,
    "TEA_Update_Leave_CEN_2010" : 0,
    "Census_Mail_Returns_CEN_2010" : 772,
    "Vacants_CEN_2010" : 6,
    "Deletes_CEN_2010" : 0,
    "Census_UAA_CEN_2010" : 49,
    "Valid_Mailback_Count_CEN_2010" : 891,
    "FRST_FRMS_CEN_2010" : 772,
    "RPLCMNT_FRMS_CEN_2010" : 0,
    "BILQ_Mailout_count_CEN_2010" : 0,
    "BILQ_Frms_CEN_2010" : 0,
    "Mail_Return_Rate_CEN_2010" : 86.6,
    "Low_Response_Score" : 15.345456796,
    "pct_URBANIZED_AREA_POP_CEN_2010" : 100,
    "pct_URBAN_CLUSTER_POP_CEN_2010" : 0,
    "pct_RURAL_POP_CEN_2010" : 0,
    "pct_Males_CEN_2010" : 49.19,
    "pct_Males_ACS_09_13" : 48.168007149,
    "pct_Males_ACSMOE_09_13" : 2.6285862755,
    "pct_Females_CEN_2010" : 50.81,
    "pct_Females_ACS_09_13" : 51.831992851,
    "pct_Females_ACSMOE_09_13" : 4.3361056819,
    "pct_Pop_Under_5_CEN_2010" : 6.68,
    "pct_Pop_Under_5_ACS_09_13" : 5.0938337802,
    "pct_Pop_Under_5_ACSMOE_09_13" : 3.033094963,
    "pct_Pop_5_17_CEN_2010" : 16.94,
    "pct_Pop_5_17_ACS_09_13" : 15.102770331,
    "pct_Pop_5_17_ACSMOE_09_13" : 1.9487672778,
    "pct_Pop_18_24_CEN_2010" : 7.07,
    "pct_Pop_18_24_ACS_09_13" : 5.6300268097,
    "pct_Pop_18_24_ACSMOE_09_13" : 5.5967410428,
    "pct_Pop_25_44_CEN_2010" : 28.98,
    "pct_Pop_25_44_ACS_09_13" : 30.563002681,
    "pct_Pop_25_44_ACSMOE_09_13" : 4.7129713985,
    "pct_Pop_45_64_CEN_2010" : 26.8,
    "pct_Pop_45_64_ACS_09_13" : 29.356568365,
    "pct_Pop_45_64_ACSMOE_09_13" : 5.4344421699,
    "pct_Pop_65plus_CEN_2010" : 13.53,
    "pct_Pop_65plus_ACS_09_13" : 14.253798034,
    "pct_Pop_65plus_ACSMOE_09_13" : 2.1687035299,
    "pct_Tot_GQ_CEN_2010" : 0,
    "pct_Inst_GQ_CEN_2010" : 0,
    "pct_Non_Inst_GQ_CEN_2010" : 0,
    "pct_Hispanic_CEN_2010" : 4.1,
    "pct_Hispanic_ACS_09_13" : 6.5236818588,
    "pct_Hispanic_ACSMOE_09_13" : 4.7734684532,
    "pct_NH_White_alone_CEN_2010" : 72.81,
    "pct_NH_White_alone_ACS_09_13" : 72.162645219,
    "pct_NH_White_alone_ACSMOE_09_13" : 11.006701238,
    "pct_NH_Blk_alone_CEN_2010" : 18.2,
    "pct_NH_Blk_alone_ACS_09_13" : 18.051831993,
    "pct_NH_Blk_alone_ACSMOE_09_13" : 5.7048481359,
    "pct_NH_AIAN_alone_CEN_2010" : 0.22,
    "pct_NH_AIAN_alone_ACS_09_13" : 0,
    "pct_NH_AIAN_alone_ACSMOE_09_13" : 0.4468275246,
    "pct_NH_Asian_alone_CEN_2010" : 0.65,
    "pct_NH_Asian_alone_ACS_09_13" : 0,
    "pct_NH_Asian_alone_ACSMOE_09_13" : 0.4468275246,
    "pct_NH_NHOPI_alone_CEN_2010" : 0,
    "pct_NH_NHOPI_alone_ACS_09_13" : 0,
    "pct_NH_NHOPI_alone_ACSMOE_09_13" : 0.4468275246,
    "pct_NH_SOR_alone_CEN_2010" : 0.44,
    "pct_NH_SOR_alone_ACS_09_13" : 0,
    "pct_NH_SOR_alone_ACSMOE_09_13" : 0.4468275246,
    "pct_Pop_5yrs_Over_ACS_09_13" : 94.90616622,
    "pct_Pop_5yrs_Over_ACSMOE_09_13" : 13.817197443,
    "pct_Othr_Lang_ACS_09_13" : 4.2372881356,
    "pct_Othr_Lang_ACSMOE_09_13" : 2.3656998939,
    "pct_Age5p_Only_Eng_ACS_09_13" : 95.762711864,
    "pct_Age5p_Only_Eng_ACSMOE_09_13" : 4.0251013076,
    "pct_Age5p_Spanish_ACS_09_13" : 0.65913371,
    "pct_Age5p_Spanish_ACSMOE_09_13" : 0.8922514338,
    "pct_Age5p_French_ACS_09_13" : 0.0941619586,
    "pct_Age5p_French_ACSMOE_09_13" : 0.2823382156,
    "pct_Age5p_FrCreole_ACS_09_13" : 0,
    "pct_Age5p_FrCreole_ACSMOE_09_13" : 0.4708097928,
    "pct_Age5p_Italian_ACS_09_13" : 0,
    "pct_Age5p_Italian_ACSMOE_09_13" : 0.4708097928,
    "pct_Age5p_Portugues_ACS_09_13" : 0,
    "pct_Age5p_Portugues_ACSMOE_09_13" : 0.4708097928,
    "pct_Age5p_German_ACS_09_13" : 0,
    "pct_Age5p_German_ACSMOE_09_13" : 0.4708097928,
    "pct_Age5p_Yiddish_ACS_09_13" : 0,
    "pct_Age5p_Yiddish_ACSMOE_09_13" : 0.4708097928,
    "pct_Age5p_WGerman_ACS_09_13" : 0,
    "pct_Age5p_WGerman_ACSMOE_09_13" : 0.4708097928,
    "pct_Age5p_Scandinav_ACS_09_13" : 0,
    "pct_Age5p_Scandinav_ACSMOE_09_13" : 0.4708097928,
    "pct_Age5p_Greek_ACS_09_13" : 0,
    "pct_Age5p_Greek_ACSMOE_09_13" : 0.4708097928,
    "pct_Age5p_Russian_ACS_09_13" : 0,
    "pct_Age5p_Russian_ACSMOE_09_13" : 0.4708097928,
    "pct_Age5p_Polish_ACS_09_13" : 0,
    "pct_Age5p_Polish_ACSMOE_09_13" : 0.4708097928,
    "pct_Age5p_SRBCroati_ACS_09_13" : 0,
    "pct_Age5p_SRBCroati_ACSMOE_09_13" : 0.4708097928,
    "pct_Age5p_OthSlavic_ACS_09_13" : 0.2824858757,
    "pct_Age5p_OthSlavic_ACSMOE_09_13" : 0.4228421568,
    "pct_Age5p_Armenian_ACS_09_13" : 0,
    "pct_Age5p_Armenian_ACSMOE_09_13" : 0.4708097928,
    "pct_Age5p_Persian_ACS_09_13" : 0,
    "pct_Age5p_Persian_ACSMOE_09_13" : 0.4708097928,
    "pct_Age5p_Gujarati_ACS_09_13" : 0,
    "pct_Age5p_Gujarati_ACSMOE_09_13" : 0.4708097928,
    "pct_Age5p_Hindi_ACS_09_13" : 0,
    "pct_Age5p_Hindi_ACSMOE_09_13" : 0.4708097928,
    "pct_Age5p_Urdu_ACS_09_13" : 0,
    "pct_Age5p_Urdu_ACSMOE_09_13" : 0.4708097928,
    "pct_Age5p_OthIndic_ACS_09_13" : 0,
    "pct_Age5p_OthIndic_ACSMOE_09_13" : 0.4708097928,
    "pct_Age5p_OthEuro_ACS_09_13" : 0.988700565,
    "pct_Age5p_OthEuro_ACSMOE_09_13" : 1.2203438499,
    "pct_Age5p_Chinese_ACS_09_13" : 0,
    "pct_Age5p_Chinese_ACSMOE_09_13" : 0.4708097928,
    "pct_Age5p_Japanese_ACS_09_13" : 0,
    "pct_Age5p_Japanese_ACSMOE_09_13" : 0.4708097928,
    "pct_Age5p_Korean_ACS_09_13" : 0,
    "pct_Age5p_Korean_ACSMOE_09_13" : 0.4708097928,
    "pct_Age5p_Cambodian_ACS_09_13" : 0,
    "pct_Age5p_Cambodian_ACSMOE_09_13" : 0.4708097928,
    "pct_Age5p_Hmong_ACS_09_13" : 0,
    "pct_Age5p_Hmong_ACSMOE_09_13" : 0.4708097928,
    "pct_Age5p_Thai_ACS_09_13" : 0,
    "pct_Age5p_Thai_ACSMOE_09_13" : 0.4708097928,
    "pct_Age5p_Laotian_ACS_09_13" : 0,
    "pct_Age5p_Laotian_ACSMOE_09_13" : 0.4708097928,
    "pct_Age5p_Vietnames_ACS_09_13" : 0,
    "pct_Age5p_Vietnames_ACSMOE_09_13" : 0.4708097928,
    "pct_Age5p_OthAsian_ACS_09_13" : 0,
    "pct_Age5p_OthAsian_ACSMOE_09_13" : 0.4708097928,
    "pct_Age5p_Tagalog_ACS_09_13" : 0,
    "pct_Age5p_Tagalog_ACSMOE_09_13" : 0.4708097928,
    "pct_Age5p_OthPacIsl_ACS_09_13" : 0,
    "pct_Age5p_OthPacIsl_ACSMOE_09_13" : 0.4708097928,
    "pct_Age5p_Navajo_ACS_09_13" : 0,
    "pct_Age5p_Navajo_ACSMOE_09_13" : 0.4708097928,
    "pct_Age5p_NativeNAm_ACS_09_13" : 0,
    "pct_Age5p_NativeNAm_ACSMOE_09_13" : 0.4708097928,
    "pct_Age5p_Hungarian_ACS_09_13" : 0,
    "pct_Age5p_Hungarian_ACSMOE_09_13" : 0.4708097928,
    "pct_Age5p_Arabic_ACS_09_13" : 0,
    "pct_Age5p_Arabic_ACSMOE_09_13" : 0.4708097928,
    "pct_Age5p_Hebrew_ACS_09_13" : 0,
    "pct_Age5p_Hebrew_ACSMOE_09_13" : 0.4708097928,
    "pct_Age5p_African_ACS_09_13" : 0,
    "pct_Age5p_African_ACSMOE_09_13" : 0.4708097928,
    "pct_Age5p_OthUnSp_ACS_09_13" : 0,
    "pct_Age5p_OthUnSp_ACSMOE_09_13" : 0.4708097928,
    "pct_Pop_25yrs_Over_ACS_09_13" : 74.17336908,
    "pct_Pop_25yrs_Over_ACSMOE_09_13" : 11.04015978,
    "pct_Not_HS_Grad_ACS_09_13" : 14.518072289,
    "pct_Not_HS_Grad_ACSMOE_09_13" : 8.1808043297,
    "pct_College_ACS_09_13" : 24.578313253,
    "pct_College_ACSMOE_09_13" : 6.4600249727,
    "pct_Pov_Univ_ACS_09_13" : 99.82126899,
    "pct_Pov_Univ_ACSMOE_09_13" : 0.6488839055,
    "pct_Prs_Blw_Pov_Lev_ACS_09_13" : 7.2068039391,
    "pct_Prs_Blw_Pov_Lev_ACSMOE_09_13" : 4.1340317769,
    "pct_One_Health_Ins_ACS_09_13" : 65.728328865,
    "pct_One_Health_Ins_ACSMOE_09_13" : 1.45378546,
    "pct_TwoPHealth_Ins_ACS_09_13" : 21.671134942,
    "pct_TwoPHealthIns_ACSMOE_09_13" : 3.6929785482,
    "pct_No_Health_Ins_ACS_09_13" : 12.600536193,
    "pct_No_Health_Ins_ACSMOE_09_13" : 4.8602550061,
    "pct_Civ_emp_16p_ACS_09_13" : 85.132743363,
    "pct_Civ_emp_16p_ACSMOE_09_13" : 3.8692416887,
    "pct_Civ_unemp_16p_ACS_09_13" : 14.867256637,
    "pct_Civ_unemp_16p_ACSMOE_09_13" : 5.5460501584,
    "pct_Civ_emp_16_24_ACS_09_13" : 68.421052632,
    "pct_Civ_emp_16_24_ACSMOE_09_13" : 32.935763889,
    "pct_Civ_unemp_16_24_ACS_09_13" : 31.578947368,
    "pct_Civ_unemp_16_24_ACSMOE_09_13" : 25.263157895,
    "pct_Civ_emp_25_44_ACS_09_13" : 89.417989418,
    "pct_Civ_emp_25_44_ACSMOE_09_13" : 5.4777445725,
    "pct_Civ_unemp_25_44_ACS_09_13" : 10.582010582,
    "pct_Civ_unemp_25_44_ACSMOE_09_13" : 6.9279417886,
    "pct_Civ_emp_45_64_ACS_09_13" : 84.875846501,
    "pct_Civ_emp_45_64_ACSMOE_09_13" : 8.9032554048,
    "pct_Civ_unemp_45_64_ACS_09_13" : 15.124153499,
    "pct_Civ_unemp_45_64_ACSMOE_09_13" : 11.056076043,
    "pct_Civ_emp_65p_ACS_09_13" : 56,
    "pct_Civ_emp_65p_ACSMOE_09_13" : 41.63967339,
    "pct_Civ_unemp_65p_ACS_09_13" : 44,
    "pct_Civ_unemp_65p_ACSMOE_09_13" : 56,
    "pct_Pop_1yr_Over_ACS_09_13" : 99.82126899,
    "pct_Pop_1yr_Over_ACSMOE_09_13" : 0.6488839055,
    "pct_Diff_HU_1yr_Ago_ACS_09_13" : 11.727842435,
    "pct_Diff_HU_1yr_Ago_ACSMOE_09_13" : 5.815167446,
    "pct_Born_US_ACS_09_13" : 96.782841823,
    "pct_Born_US_ACSMOE_09_13" : 2.7319705446,
    "pct_Born_foreign_ACS_09_13" : 3.2171581769,
    "pct_Born_foreign_ACSMOE_09_13" : 1.6159371817,
    "pct_US_Cit_Nat_ACS_09_13" : 1.9660411081,
    "pct_US_Cit_Nat_ACSMOE_09_13" : 1.4138230727,
    "pct_NON_US_Cit_ACS_09_13" : 1.2511170688,
    "pct_NON_US_Cit_ACSMOE_09_13" : 1.0186855163,
    "pct_ENG_VW_SPAN_ACS_09_13" : 0,
    "pct_ENG_VW_SPAN_ACSMOE_09_13" : 1.1668611435,
    "pct_ENG_VW_INDOEURO_ACS_09_13" : 1.7502917153,
    "pct_ENG_VW_INDOEURO_ACSMOE_09_13" : 1.8625388027,
    "pct_ENG_VW_API_ACS_09_13" : 0,
    "pct_ENG_VW_API_ACSMOE_09_13" : 1.1668611435,
    "pct_ENG_VW_OTHER_ACS_09_13" : 0,
    "pct_ENG_VW_OTHER_ACSMOE_09_13" : 1.1668611435,
    "pct_ENG_VW_ACS_09_13" : 1.7502917153,
    "pct_ENG_VW_ACSMOE_09_13" : 2.2132993395,
    "pct_Rel_Family_HHDS_CEN_2010" : 67.81,
    "pct_Rel_Family_HHD_ACS_09_13" : 71.528588098,
    "pct_Rel_Family_HHD_ACSMOE_09_13" : 6.7014056414,
    "pct_MrdCple_HHD_CEN_2010" : 47.52,
    "pct_MrdCple_HHD_ACS_09_13" : 51.108518086,
    "pct_MrdCple_HHD_ACSMOE_09_13" : 4.7645459642,
    "pct_Not_MrdCple_HHD_CEN_2010" : 52.48,
    "pct_Not_MrdCple_HHD_ACS_09_13" : 48.891481914,
    "pct_Not_MrdCple_HHD_ACSMOE_09_13" : 10.115588753,
    "pct_Female_No_HB_CEN_2010" : 14,
    "pct_Female_No_HB_ACS_09_13" : 16.802800467,
    "pct_Female_No_HB_ACSMOE_09_13" : 7.8379215569,
    "pct_NonFamily_HHD_CEN_2010" : 32.19,
    "pct_NonFamily_HHD_ACS_09_13" : 28.471411902,
    "pct_NonFamily_HHD_ACSMOE_09_13" : 6.4360240212,
    "pct_Sngl_Prns_HHD_CEN_2010" : 25.14,
    "pct_Sngl_Prns_HHD_ACS_09_13" : 22.053675613,
    "pct_Sngl_Prns_HHD_ACSMOE_09_13" : 5.6045324482,
    "pct_HHD_PPL_Und_18_CEN_2010" : 31.2,
    "pct_HHD_PPL_Und_18_ACS_09_13" : 29.988331389,
    "pct_HHD_PPL_Und_18_ACSMOE_09_13" : 7.3790178835,
    "avg_Tot_Prns_in_HHD_CEN_2010" : 2.5259,
    "avg_Tot_Prns_in_HHD_ACS_09_13" : 2.6114352392,
    "avg_Tot_Prns_in_HHD_ACSMOE_09_13" : 0.2086758545,
    "pct_Rel_Under_6_CEN_2010" : 21.46,
    "pct_Rel_Under_6_ACS_09_13" : 15.660685155,
    "pct_Rel_Under_6_ACSMOE_09_13" : 9.7747362337,
    "pct_HHD_Moved_in_ACS_09_13" : 7.8179696616,
    "pct_HHD_Moved_in_ACSMOE_09_13" : 5.1019210001,
    "pct_PUB_ASST_INC_ACS_09_13" : 3.6172695449,
    "pct_PUB_ASST_INC_ACSMOE_09_13" : 4.3091894608,
    "avg_Agg_HH_INC_ACS_09_13" : "$66,379",
    "avg_Agg_HH_INC_ACSMOE_09_13" : "$5,208",
    "pct_Tot_Occp_Units_CEN_2010" : 95.88,
    "pct_Tot_Occp_Units_ACS_09_13" : 90.783898305,
    "pct_Tot_Occp_Units_ACSMOE_09_13" : 6.063054132,
    "pct_Vacant_Units_CEN_2010" : 4.12,
    "pct_Vacant_Units_ACS_09_13" : 9.2161016949,
    "pct_Vacant_Units_ACSMOE_09_13" : 5.8193881124,
    "pct_Renter_Occp_HU_CEN_2010" : 9.48,
    "pct_Renter_Occp_HU_ACS_09_13" : 14.002333722,
    "pct_Renter_Occp_HU_ACSMOE_09_13" : 5.742784692,
    "pct_Owner_Occp_HU_CEN_2010" : 90.52,
    "pct_Owner_Occp_HU_ACS_09_13" : 85.997666278,
    "pct_Owner_Occp_HU_ACSMOE_09_13" : 5.1720873896,
    "pct_Single_Unit_ACS_09_13" : 97.775423729,
    "pct_Single_Unit_ACSMOE_09_13" : 3.564112847,
    "pct_MLT_U2_9_STRC_ACS_09_13" : 0,
    "pct_MLT_U2_9_STRC_ACSMOE_09_13" : 1.0593220339,
    "pct_MLT_U10p_ACS_09_13" : 0,
    "pct_MLT_U10p_ACSMOE_09_13" : 1.0593220339,
    "pct_Mobile_Homes_ACS_09_13" : 2.2245762712,
    "pct_Mobile_Homes_ACSMOE_09_13" : 2.9653143079,
    "pct_Crowd_Occp_U_ACS_09_13" : 0,
    "pct_Crowd_Occp_U_ACSMOE_09_13" : 1.1668611435,
    "pct_NO_PH_SRVC_ACS_09_13" : 1.1668611435,
    "pct_NO_PH_SRVC_ACSMOE_09_13" : 1.8650062332,
    "pct_No_Plumb_ACS_09_13" : 0,
    "pct_No_Plumb_ACSMOE_09_13" : 1.0593220339,
    "pct_Recent_Built_HU_ACS_09_13" : 0,
    "pct_Recent_Built_HU_ACSMOE_09_13" : 1.0593220339,
    "avg_Agg_House_Value_ACS_09_13" : "$85,022",
    "avg_Agg_House_Value_ACSMOE_09_13" : "$8,277",
    "pct_TEA_MailOutMailBack_CEN_2010" : 100,
    "pct_TEA_Update_Leave_CEN_2010" : 0,
    "pct_Census_Mail_Returns_CEN_2010" : 81.61,
    "pct_Vacant_CEN_2010" : 0.63,
    "pct_Deletes_CEN_2010" : 0,
    "pct_Census_UAA_CEN_2010" : 5.18,
    "pct_Mailback_Count_CEN_2010" : 94.19,
    "pct_FRST_FRMS_CEN_2010" : 81.61,
    "pct_RPLCMNT_FRMS_CEN_2010" : 0,
    "pct_BILQ_Mailout_count_CEN_2010" : 0
  }
}
