{
  "26161412600" :
  {
    "GIDTR" : 26161412600,
    "State" : 26,
    "State_name" : "Michigan",
    "County" : 161,
    "County_name" : "Washtenaw County",
    "Tract" : 412600,
    "Flag" : "",
    "Num_BGs_in_Tract" : 2,
    "LAND_AREA" : 0.477,
    "AIAN_LAND" : 0,
    "URBANIZED_AREA_POP_CEN_2010" : 2523,
    "URBAN_CLUSTER_POP_CEN_2010" : 0,
    "RURAL_POP_CEN_2010" : 0,
    "Tot_Population_CEN_2010" : 2523,
    "Tot_Population_ACS_09_13" : 2710,
    "Tot_Population_ACSMOE_09_13" : 226,
    "Males_CEN_2010" : 1145,
    "Males_ACS_09_13" : 1369,
    "Males_ACSMOE_09_13" : 216,
    "Females_CEN_2010" : 1378,
    "Females_ACS_09_13" : 1341,
    "Females_ACSMOE_09_13" : 172,
    "Pop_under_5_CEN_2010" : 165,
    "Pop_under_5_ACS_09_13" : 158,
    "Pop_under_5_ACSMOE_09_13" : 76,
    "Pop_5_17_CEN_2010" : 174,
    "Pop_5_17_ACS_09_13" : 140,
    "Pop_5_17_ACSMOE_09_13" : 73,
    "Pop_18_24_CEN_2010" : 551,
    "Pop_18_24_ACS_09_13" : 788,
    "Pop_18_24_ACSMOE_09_13" : 788,
    "Pop_25_44_CEN_2010" : 861,
    "Pop_25_44_ACS_09_13" : 847,
    "Pop_25_44_ACSMOE_09_13" : 211,
    "Pop_45_64_CEN_2010" : 551,
    "Pop_45_64_ACS_09_13" : 632,
    "Pop_45_64_ACSMOE_09_13" : 137,
    "Pop_65plus_CEN_2010" : 221,
    "Pop_65plus_ACS_09_13" : 145,
    "Pop_65plus_ACSMOE_09_13" : 78,
    "Tot_GQ_CEN_2010" : 0,
    "Inst_GQ_CEN_2010" : 0,
    "Non_Inst_GQ_CEN_2010" : 0,
    "Hispanic_CEN_2010" : 89,
    "Hispanic_ACS_09_13" : 121,
    "Hispanic_ACSMOE_09_13" : 77,
    "NH_White_alone_CEN_2010" : 1433,
    "NH_White_alone_ACS_09_13" : 1513,
    "NH_White_alone_ACSMOE_09_13" : 262,
    "NH_Blk_alone_CEN_2010" : 856,
    "NH_Blk_alone_ACS_09_13" : 859,
    "NH_Blk_alone_ACSMOE_09_13" : 154,
    "NH_AIAN_alone_CEN_2010" : 6,
    "NH_AIAN_alone_ACS_09_13" : 15,
    "NH_AIAN_alone_ACSMOE_09_13" : 18,
    "NH_Asian_alone_CEN_2010" : 37,
    "NH_Asian_alone_ACS_09_13" : 62,
    "NH_Asian_alone_ACSMOE_09_13" : 51,
    "NH_NHOPI_alone_CEN_2010" : 0,
    "NH_NHOPI_alone_ACS_09_13" : 0,
    "NH_NHOPI_alone_ACSMOE_09_13" : 10,
    "NH_SOR_alone_CEN_2010" : 13,
    "NH_SOR_alone_ACS_09_13" : 0,
    "NH_SOR_alone_ACSMOE_09_13" : 10,
    "Pop_5yrs_Over_ACS_09_13" : 2552,
    "Pop_5yrs_Over_ACSMOE_09_13" : 215,
    "Othr_Lang_ACS_09_13" : 116,
    "Othr_Lang_ACSMOE_09_13" : 66,
    "Age5p_Only_English_ACS_09_13" : 2436,
    "Age5p_Only_English_ACSMOE_09_13" : 227,
    "Age5p_Spanish_ACS_09_13" : 11,
    "Age5p_Spanish_ACSMOE_09_13" : 17,
    "Age5p_French_ACS_09_13" : 9,
    "Age5p_French_ACSMOE_09_13" : 14,
    "Age5p_FrCreole_ACS_09_13" : 0,
    "Age5p_FrCreole_ACSMOE_09_13" : 10,
    "Age5p_Italian_ACS_09_13" : 0,
    "Age5p_Italian_ACSMOE_09_13" : 10,
    "Age5p_Portuguese_ACS_09_13" : 0,
    "Age5p_Portuguese_ACSMOE_09_13" : 10,
    "Age5p_German_ACS_09_13" : 0,
    "Age5p_German_ACSMOE_09_13" : 10,
    "Age5p_Yiddish_ACS_09_13" : 0,
    "Age5p_Yiddish_ACSMOE_09_13" : 10,
    "Age5p_WGerman_ACS_09_13" : 0,
    "Age5p_WGerman_ACSMOE_09_13" : 10,
    "Age5p_Scandinavian_ACS_09_13" : 0,
    "Age5p_Scandinavian_ACSMOE_09_13" : 10,
    "Age5p_Greek_ACS_09_13" : 0,
    "Age5p_Greek_ACSMOE_09_13" : 10,
    "Age5p_Russian_ACS_09_13" : 0,
    "Age5p_Russian_ACSMOE_09_13" : 10,
    "Age5p_Polish_ACS_09_13" : 0,
    "Age5p_Polish_ACSMOE_09_13" : 10,
    "Age5p_SRBCroatian_ACS_09_13" : 0,
    "Age5p_SRBCroatian_ACSMOE_09_13" : 10,
    "Age5p_OthSlavic_ACS_09_13" : 0,
    "Age5p_OthSlavic_ACSMOE_09_13" : 10,
    "Age5p_Armenian_ACS_09_13" : 0,
    "Age5p_Armenian_ACSMOE_09_13" : 10,
    "Age5p_Persian_ACS_09_13" : 0,
    "Age5p_Persian_ACSMOE_09_13" : 10,
    "Age5p_Gujarati_ACS_09_13" : 0,
    "Age5p_Gujarati_ACSMOE_09_13" : 10,
    "Age5p_Hindi_ACS_09_13" : 0,
    "Age5p_Hindi_ACSMOE_09_13" : 10,
    "Age5p_Urdu_ACS_09_13" : 0,
    "Age5p_Urdu_ACSMOE_09_13" : 10,
    "Age5p_OthIndic_ACS_09_13" : 0,
    "Age5p_OthIndic_ACSMOE_09_13" : 10,
    "Age5p_OthEuro_ACS_09_13" : 0,
    "Age5p_OthEuro_ACSMOE_09_13" : 10,
    "Age5p_Chinese_ACS_09_13" : 8,
    "Age5p_Chinese_ACSMOE_09_13" : 12,
    "Age5p_Japanese_ACS_09_13" : 0,
    "Age5p_Japanese_ACSMOE_09_13" : 10,
    "Age5p_Korean_ACS_09_13" : 0,
    "Age5p_Korean_ACSMOE_09_13" : 10,
    "Age5p_Cambodian_ACS_09_13" : 0,
    "Age5p_Cambodian_ACSMOE_09_13" : 10,
    "Age5p_Hmong_ACS_09_13" : 0,
    "Age5p_Hmong_ACSMOE_09_13" : 10,
    "Age5p_Thai_ACS_09_13" : 0,
    "Age5p_Thai_ACSMOE_09_13" : 10,
    "Age5p_Laotian_ACS_09_13" : 0,
    "Age5p_Laotian_ACSMOE_09_13" : 10,
    "Age5p_Vietnamese_ACS_09_13" : 0,
    "Age5p_Vietnamese_ACSMOE_09_13" : 10,
    "Age5p_OthAsian_ACS_09_13" : 0,
    "Age5p_OthAsian_ACSMOE_09_13" : 10,
    "Age5p_Tagalog_ACS_09_13" : 0,
    "Age5p_Tagalog_ACSMOE_09_13" : 10,
    "Age5p_OthPacIsl_ACS_09_13" : 0,
    "Age5p_OthPacIsl_ACSMOE_09_13" : 10,
    "Age5p_Navajo_ACS_09_13" : 0,
    "Age5p_Navajo_ACSMOE_09_13" : 10,
    "Age5p_NativeNAm_ACS_09_13" : 0,
    "Age5p_NativeNAm_ACSMOE_09_13" : 10,
    "Age5p_Hungarian_ACS_09_13" : 0,
    "Age5p_Hungarian_ACSMOE_09_13" : 10,
    "Age5p_Arabic_ACS_09_13" : 0,
    "Age5p_Arabic_ACSMOE_09_13" : 10,
    "Age5p_Hebrew_ACS_09_13" : 0,
    "Age5p_Hebrew_ACSMOE_09_13" : 10,
    "Age5p_African_ACS_09_13" : 9,
    "Age5p_African_ACSMOE_09_13" : 15,
    "Age5p_OthUnSp_ACS_09_13" : 0,
    "Age5p_OthUnSp_ACSMOE_09_13" : 10,
    "Pop_25yrs_Over_ACS_09_13" : 1624,
    "Pop_25yrs_Over_ACSMOE_09_13" : 206,
    "Not_HS_Grad_ACS_09_13" : 135,
    "Not_HS_Grad_ACSMOE_09_13" : 67,
    "College_ACS_09_13" : 446,
    "College_ACSMOE_09_13" : 111,
    "Pov_Univ_ACS_09_13" : 2710,
    "Pov_Univ_ACSMOE_09_13" : 226,
    "Prs_Blw_Pov_Lev_ACS_09_13" : 552,
    "Prs_Blw_Pov_Lev_ACSMOE_09_13" : 172,
    "One_Health_Ins_ACS_09_13" : 1755,
    "One_Health_Ins_ACSMOE_09_13" : 309,
    "Two_Plus_Health_Ins_ACS_09_13" : 370,
    "Two_Plus_Health_Ins_ACSMOE_09_13" : 109,
    "No_Health_Ins_ACS_09_13" : 585,
    "No_Health_Ins_ACSMOE_09_13" : 189,
    "Civ_labor_16plus_ACS_09_13" : 1904,
    "Civ_labor_16plus_ACSMOE_09_13" : 211,
    "Civ_emp_16plus_ACS_09_13" : 1668,
    "Civ_emp_16plus_ACSMOE_09_13" : 197,
    "Civ_unemp_16plus_ACS_09_13" : 236,
    "Civ_unemp_16plus_ACSMOE_09_13" : 100,
    "Civ_labor_16_24_ACS_09_13" : 722,
    "Civ_labor_16_24_ACSMOE_09_13" : 216,
    "Civ_emp_16_24_ACS_09_13" : 631,
    "Civ_emp_16_24_ACSMOE_09_13" : 201,
    "Civ_unemp_16_24_ACS_09_13" : 91,
    "Civ_unemp_16_24_ACSMOE_09_13" : 79,
    "Civ_labor_25_44_ACS_09_13" : 748,
    "Civ_labor_25_44_ACSMOE_09_13" : 202,
    "Civ_emp_25_44_ACS_09_13" : 667,
    "Civ_emp_25_44_ACSMOE_09_13" : 191,
    "Civ_unemp_25_44_ACS_09_13" : 81,
    "Civ_unemp_25_44_ACSMOE_09_13" : 68,
    "Civ_labor_45_64_ACS_09_13" : 417,
    "Civ_labor_45_64_ACSMOE_09_13" : 101,
    "Civ_emp_45_64_ACS_09_13" : 353,
    "Civ_emp_45_64_ACSMOE_09_13" : 94,
    "Civ_unemp_45_64_ACS_09_13" : 64,
    "Civ_unemp_45_64_ACSMOE_09_13" : 44,
    "Civ_labor_65plus_ACS_09_13" : 17,
    "Civ_labor_65plus_ACSMOE_09_13" : 21,
    "Civ_emp_65plus_ACS_09_13" : 17,
    "Civ_emp_65plus_ACSMOE_09_13" : 21,
    "Civ_unemp_65plus_ACS_09_13" : 0,
    "Civ_unemp_65plus_ACSMOE_09_13" : 10,
    "Pop_1yr_Over_ACS_09_13" : 2710,
    "Pop_1yr_Over_ACSMOE_09_13" : 226,
    "Diff_HU_1yr_Ago_ACS_09_13" : 1137,
    "Diff_HU_1yr_Ago_ACSMOE_09_13" : 279,
    "Born_US_ACS_09_13" : 2538,
    "Born_US_ACSMOE_09_13" : 226,
    "Born_foreign_ACS_09_13" : 172,
    "Born_foreign_ACSMOE_09_13" : 96,
    "US_Cit_Nat_ACS_09_13" : 49,
    "US_Cit_Nat_ACSMOE_09_13" : 40,
    "NON_US_Cit_ACS_09_13" : 123,
    "NON_US_Cit_ACSMOE_09_13" : 86,
    "ENG_VW_SPAN_ACS_09_13" : 0,
    "ENG_VW_SPAN_ACSMOE_09_13" : 10,
    "ENG_VW_INDO_EURO_ACS_09_13" : 9,
    "ENG_VW_INDO_EURO_ACSMOE_09_13" : 14,
    "ENG_VW_API_ACS_09_13" : 0,
    "ENG_VW_API_ACSMOE_09_13" : 10,
    "ENG_VW_OTHER_ACS_09_13" : 0,
    "ENG_VW_OTHER_ACSMOE_09_13" : 10,
    "ENG_VW_ACS_09_13" : 9,
    "ENG_VW_ACSMOE_09_13" : 17,
    "Rel_Family_HHDS_CEN_2010" : 471,
    "Rel_Family_HHD_ACS_09_13" : 493,
    "Rel_Family_HHD_ACSMOE_09_13" : 132,
    "MrdCple_Fmly_HHD_CEN_2010" : 234,
    "MrdCple_Fmly_HHD_ACS_09_13" : 243,
    "MrdCple_Fmly_HHD_ACSMOE_09_13" : 107,
    "Not_MrdCple_HHD_CEN_2010" : 1237,
    "Not_MrdCple_HHD_ACS_09_13" : 1223,
    "Not_MrdCple_HHD_ACSMOE_09_13" : 179,
    "Female_No_HB_CEN_2010" : 179,
    "Female_No_HB_ACS_09_13" : 154,
    "Female_No_HB_ACSMOE_09_13" : 79,
    "NonFamily_HHD_CEN_2010" : 1000,
    "NonFamily_HHD_ACS_09_13" : 973,
    "NonFamily_HHD_ACSMOE_09_13" : 155,
    "Sngl_Prns_HHD_CEN_2010" : 766,
    "Sngl_Prns_HHD_ACS_09_13" : 654,
    "Sngl_Prns_HHD_ACSMOE_09_13" : 142,
    "HHD_PPL_Und_18_CEN_2010" : 232,
    "HHD_PPL_Und_18_ACS_09_13" : 226,
    "HHD_PPL_Und_18_ACSMOE_09_13" : 89,
    "Tot_Prns_in_HHD_CEN_2010" : 2523,
    "Tot_Prns_in_HHD_ACS_09_13" : 2710,
    "Tot_Prns_in_HHD_ACSMOE_09_13" : 226,
    "Rel_Child_Under_6_CEN_2010" : 138,
    "Rel_Child_Under_6_ACS_09_13" : 111,
    "Rel_Child_Under_6_ACSMOE_09_13" : 61,
    "HHD_Moved_in_ACS_09_13" : 636,
    "HHD_Moved_in_ACSMOE_09_13" : 130,
    "PUB_ASST_INC_ACS_09_13" : 50,
    "PUB_ASST_INC_ACSMOE_09_13" : 49,
    "Med_HHD_Inc_ACS_09_13" : "$37,045",
    "Med_HHD_Inc_ACSMOE_09_13" : "$7,167",
    "Aggregate_HH_INC_ACS_09_13" : "$61,695,500",
    "Aggregate_HH_INC_ACSMOE_09_13" : "$6,400,103",
    "Tot_Housing_Units_CEN_2010" : 1643,
    "Tot_Housing_Units_ACS_09_13" : 1666,
    "Tot_Housing_Units_ACSMOE_09_13" : 52,
    "Tot_Occp_Units_CEN_2010" : 1471,
    "Tot_Occp_Units_ACS_09_13" : 1466,
    "Tot_Occp_Units_ACSMOE_09_13" : 111,
    "Tot_Vacant_Units_CEN_2010" : 172,
    "Tot_Vacant_Units_ACS_09_13" : 200,
    "Tot_Vacant_Units_ACSMOE_09_13" : 106,
    "Renter_Occp_HU_CEN_2010" : 1199,
    "Renter_Occp_HU_ACS_09_13" : 1252,
    "Renter_Occp_HU_ACSMOE_09_13" : 101,
    "Owner_Occp_HU_CEN_2010" : 272,
    "Owner_Occp_HU_ACS_09_13" : 214,
    "Owner_Occp_HU_ACSMOE_09_13" : 60,
    "Single_Unit_ACS_09_13" : 110,
    "Single_Unit_ACSMOE_09_13" : 49,
    "MLT_U2_9_STRC_ACS_09_13" : 791,
    "MLT_U2_9_STRC_ACSMOE_09_13" : 158,
    "MLT_U10p_ACS_09_13" : 765,
    "MLT_U10p_ACSMOE_09_13" : 164,
    "Mobile_Homes_ACS_09_13" : 0,
    "Mobile_Homes_ACSMOE_09_13" : 10,
    "Crowd_Occp_U_ACS_09_13" : 38,
    "Crowd_Occp_U_ACSMOE_09_13" : 36,
    "Occp_U_NO_PH_SRVC_ACS_09_13" : 46,
    "Occp_U_NO_PH_SRVC_ACSMOE_09_13" : 35,
    "No_Plumb_ACS_09_13" : 0,
    "No_Plumb_ACSMOE_09_13" : 10,
    "Recent_Built_HU_ACS_09_13" : 0,
    "Recent_Built_HU_ACSMOE_09_13" : 10,
    "Med_House_value_ACS_09_13" : "$80,000",
    "Med_House_value_ACSMOE_09_13" : "$21,821",
    "Aggr_House_Value_ACS_09_13" : "$20,592,500",
    "Aggr_House_Value_ACSMOE_09_13" : "$8,098,046",
    "MailBack_Area_Count_CEN_2010" : 1611,
    "TEA_Mail_Out_Mail_Back_CEN_2010" : 1611,
    "TEA_Update_Leave_CEN_2010" : 0,
    "Census_Mail_Returns_CEN_2010" : 1064,
    "Vacants_CEN_2010" : 33,
    "Deletes_CEN_2010" : 0,
    "Census_UAA_CEN_2010" : 195,
    "Valid_Mailback_Count_CEN_2010" : 1383,
    "FRST_FRMS_CEN_2010" : 950,
    "RPLCMNT_FRMS_CEN_2010" : 114,
    "BILQ_Mailout_count_CEN_2010" : 0,
    "BILQ_Frms_CEN_2010" : 0,
    "Mail_Return_Rate_CEN_2010" : 76.9,
    "Low_Response_Score" : 27.043230836,
    "pct_URBANIZED_AREA_POP_CEN_2010" : 100,
    "pct_URBAN_CLUSTER_POP_CEN_2010" : 0,
    "pct_RURAL_POP_CEN_2010" : 0,
    "pct_Males_CEN_2010" : 45.38,
    "pct_Males_ACS_09_13" : 50.516605166,
    "pct_Males_ACSMOE_09_13" : 6.7661408141,
    "pct_Females_CEN_2010" : 54.62,
    "pct_Females_ACS_09_13" : 49.483394834,
    "pct_Females_ACSMOE_09_13" : 4.8221735036,
    "pct_Pop_Under_5_CEN_2010" : 6.54,
    "pct_Pop_Under_5_ACS_09_13" : 5.8302583026,
    "pct_Pop_Under_5_ACSMOE_09_13" : 2.7619582116,
    "pct_Pop_5_17_CEN_2010" : 6.9,
    "pct_Pop_5_17_ACS_09_13" : 5.1660516605,
    "pct_Pop_5_17_ACSMOE_09_13" : 2.6590519362,
    "pct_Pop_18_24_CEN_2010" : 21.84,
    "pct_Pop_18_24_ACS_09_13" : 29.077490775,
    "pct_Pop_18_24_ACSMOE_09_13" : 28.976201771,
    "pct_Pop_25_44_CEN_2010" : 34.13,
    "pct_Pop_25_44_ACS_09_13" : 31.254612546,
    "pct_Pop_25_44_ACSMOE_09_13" : 7.3367396416,
    "pct_Pop_45_64_CEN_2010" : 21.84,
    "pct_Pop_45_64_ACS_09_13" : 23.32103321,
    "pct_Pop_45_64_ACSMOE_09_13" : 4.6662740313,
    "pct_Pop_65plus_CEN_2010" : 8.76,
    "pct_Pop_65plus_ACS_09_13" : 5.3505535055,
    "pct_Pop_65plus_ACSMOE_09_13" : 2.8434308289,
    "pct_Tot_GQ_CEN_2010" : 0,
    "pct_Inst_GQ_CEN_2010" : 0,
    "pct_Non_Inst_GQ_CEN_2010" : 0,
    "pct_Hispanic_CEN_2010" : 3.53,
    "pct_Hispanic_ACS_09_13" : 4.4649446494,
    "pct_Hispanic_ACSMOE_09_13" : 2.8168244814,
    "pct_NH_White_alone_CEN_2010" : 56.8,
    "pct_NH_White_alone_ACS_09_13" : 55.830258303,
    "pct_NH_White_alone_ACSMOE_09_13" : 8.4729161516,
    "pct_NH_Blk_alone_CEN_2010" : 33.93,
    "pct_NH_Blk_alone_ACS_09_13" : 31.697416974,
    "pct_NH_Blk_alone_ACSMOE_09_13" : 5.0304095943,
    "pct_NH_AIAN_alone_CEN_2010" : 0.24,
    "pct_NH_AIAN_alone_ACS_09_13" : 0.5535055351,
    "pct_NH_AIAN_alone_ACSMOE_09_13" : 0.6626007574,
    "pct_NH_Asian_alone_CEN_2010" : 1.47,
    "pct_NH_Asian_alone_ACS_09_13" : 2.2878228782,
    "pct_NH_Asian_alone_ACSMOE_09_13" : 1.8722223752,
    "pct_NH_NHOPI_alone_CEN_2010" : 0,
    "pct_NH_NHOPI_alone_ACS_09_13" : 0,
    "pct_NH_NHOPI_alone_ACSMOE_09_13" : 0.36900369,
    "pct_NH_SOR_alone_CEN_2010" : 0.52,
    "pct_NH_SOR_alone_ACS_09_13" : 0,
    "pct_NH_SOR_alone_ACSMOE_09_13" : 0.36900369,
    "pct_Pop_5yrs_Over_ACS_09_13" : 94.169741697,
    "pct_Pop_5yrs_Over_ACSMOE_09_13" : 1.1259803849,
    "pct_Othr_Lang_ACS_09_13" : 4.5454545455,
    "pct_Othr_Lang_ACSMOE_09_13" : 2.557698206,
    "pct_Age5p_Only_Eng_ACS_09_13" : 95.454545455,
    "pct_Age5p_Only_Eng_ACSMOE_09_13" : 3.8012972332,
    "pct_Age5p_Spanish_ACS_09_13" : 0.4310344828,
    "pct_Age5p_Spanish_ACSMOE_09_13" : 0.6651536781,
    "pct_Age5p_French_ACS_09_13" : 0.3526645768,
    "pct_Age5p_French_ACSMOE_09_13" : 0.5477841844,
    "pct_Age5p_FrCreole_ACS_09_13" : 0,
    "pct_Age5p_FrCreole_ACSMOE_09_13" : 0.3918495298,
    "pct_Age5p_Italian_ACS_09_13" : 0,
    "pct_Age5p_Italian_ACSMOE_09_13" : 0.3918495298,
    "pct_Age5p_Portugues_ACS_09_13" : 0,
    "pct_Age5p_Portugues_ACSMOE_09_13" : 0.3918495298,
    "pct_Age5p_German_ACS_09_13" : 0,
    "pct_Age5p_German_ACSMOE_09_13" : 0.3918495298,
    "pct_Age5p_Yiddish_ACS_09_13" : 0,
    "pct_Age5p_Yiddish_ACSMOE_09_13" : 0.3918495298,
    "pct_Age5p_WGerman_ACS_09_13" : 0,
    "pct_Age5p_WGerman_ACSMOE_09_13" : 0.3918495298,
    "pct_Age5p_Scandinav_ACS_09_13" : 0,
    "pct_Age5p_Scandinav_ACSMOE_09_13" : 0.3918495298,
    "pct_Age5p_Greek_ACS_09_13" : 0,
    "pct_Age5p_Greek_ACSMOE_09_13" : 0.3918495298,
    "pct_Age5p_Russian_ACS_09_13" : 0,
    "pct_Age5p_Russian_ACSMOE_09_13" : 0.3918495298,
    "pct_Age5p_Polish_ACS_09_13" : 0,
    "pct_Age5p_Polish_ACSMOE_09_13" : 0.3918495298,
    "pct_Age5p_SRBCroati_ACS_09_13" : 0,
    "pct_Age5p_SRBCroati_ACSMOE_09_13" : 0.3918495298,
    "pct_Age5p_OthSlavic_ACS_09_13" : 0,
    "pct_Age5p_OthSlavic_ACSMOE_09_13" : 0.3918495298,
    "pct_Age5p_Armenian_ACS_09_13" : 0,
    "pct_Age5p_Armenian_ACSMOE_09_13" : 0.3918495298,
    "pct_Age5p_Persian_ACS_09_13" : 0,
    "pct_Age5p_Persian_ACSMOE_09_13" : 0.3918495298,
    "pct_Age5p_Gujarati_ACS_09_13" : 0,
    "pct_Age5p_Gujarati_ACSMOE_09_13" : 0.3918495298,
    "pct_Age5p_Hindi_ACS_09_13" : 0,
    "pct_Age5p_Hindi_ACSMOE_09_13" : 0.3918495298,
    "pct_Age5p_Urdu_ACS_09_13" : 0,
    "pct_Age5p_Urdu_ACSMOE_09_13" : 0.3918495298,
    "pct_Age5p_OthIndic_ACS_09_13" : 0,
    "pct_Age5p_OthIndic_ACSMOE_09_13" : 0.3918495298,
    "pct_Age5p_OthEuro_ACS_09_13" : 0,
    "pct_Age5p_OthEuro_ACSMOE_09_13" : 0.3918495298,
    "pct_Age5p_Chinese_ACS_09_13" : 0.3134796238,
    "pct_Age5p_Chinese_ACSMOE_09_13" : 0.469477192,
    "pct_Age5p_Japanese_ACS_09_13" : 0,
    "pct_Age5p_Japanese_ACSMOE_09_13" : 0.3918495298,
    "pct_Age5p_Korean_ACS_09_13" : 0,
    "pct_Age5p_Korean_ACSMOE_09_13" : 0.3918495298,
    "pct_Age5p_Cambodian_ACS_09_13" : 0,
    "pct_Age5p_Cambodian_ACSMOE_09_13" : 0.3918495298,
    "pct_Age5p_Hmong_ACS_09_13" : 0,
    "pct_Age5p_Hmong_ACSMOE_09_13" : 0.3918495298,
    "pct_Age5p_Thai_ACS_09_13" : 0,
    "pct_Age5p_Thai_ACSMOE_09_13" : 0.3918495298,
    "pct_Age5p_Laotian_ACS_09_13" : 0,
    "pct_Age5p_Laotian_ACSMOE_09_13" : 0.3918495298,
    "pct_Age5p_Vietnames_ACS_09_13" : 0,
    "pct_Age5p_Vietnames_ACSMOE_09_13" : 0.3918495298,
    "pct_Age5p_OthAsian_ACS_09_13" : 0,
    "pct_Age5p_OthAsian_ACSMOE_09_13" : 0.3918495298,
    "pct_Age5p_Tagalog_ACS_09_13" : 0,
    "pct_Age5p_Tagalog_ACSMOE_09_13" : 0.3918495298,
    "pct_Age5p_OthPacIsl_ACS_09_13" : 0,
    "pct_Age5p_OthPacIsl_ACSMOE_09_13" : 0.3918495298,
    "pct_Age5p_Navajo_ACS_09_13" : 0,
    "pct_Age5p_Navajo_ACSMOE_09_13" : 0.3918495298,
    "pct_Age5p_NativeNAm_ACS_09_13" : 0,
    "pct_Age5p_NativeNAm_ACSMOE_09_13" : 0.3918495298,
    "pct_Age5p_Hungarian_ACS_09_13" : 0,
    "pct_Age5p_Hungarian_ACSMOE_09_13" : 0.3918495298,
    "pct_Age5p_Arabic_ACS_09_13" : 0,
    "pct_Age5p_Arabic_ACSMOE_09_13" : 0.3918495298,
    "pct_Age5p_Hebrew_ACS_09_13" : 0,
    "pct_Age5p_Hebrew_ACSMOE_09_13" : 0.3918495298,
    "pct_Age5p_African_ACS_09_13" : 0.3526645768,
    "pct_Age5p_African_ACSMOE_09_13" : 0.5870228857,
    "pct_Age5p_OthUnSp_ACS_09_13" : 0,
    "pct_Age5p_OthUnSp_ACSMOE_09_13" : 0.3918495298,
    "pct_Pop_25yrs_Over_ACS_09_13" : 59.926199262,
    "pct_Pop_25yrs_Over_ACSMOE_09_13" : 5.7277462551,
    "pct_Not_HS_Grad_ACS_09_13" : 8.3128078818,
    "pct_Not_HS_Grad_ACSMOE_09_13" : 3.9885869091,
    "pct_College_ACS_09_13" : 27.463054187,
    "pct_College_ACSMOE_09_13" : 5.8805885493,
    "pct_Pov_Univ_ACS_09_13" : 100,
    "pct_Pov_Univ_ACSMOE_09_13" : 11.79381052,
    "pct_Prs_Blw_Pov_Lev_ACS_09_13" : 20.36900369,
    "pct_Prs_Blw_Pov_Lev_ACSMOE_09_13" : 6.1153247834,
    "pct_One_Health_Ins_ACS_09_13" : 64.760147601,
    "pct_One_Health_Ins_ACSMOE_09_13" : 10.042078331,
    "pct_TwoPHealth_Ins_ACS_09_13" : 13.653136531,
    "pct_TwoPHealthIns_ACSMOE_09_13" : 3.8576157923,
    "pct_No_Health_Ins_ACS_09_13" : 21.586715867,
    "pct_No_Health_Ins_ACSMOE_09_13" : 6.7378223062,
    "pct_Civ_emp_16p_ACS_09_13" : 87.605042017,
    "pct_Civ_emp_16p_ACSMOE_09_13" : 3.5778798081,
    "pct_Civ_unemp_16p_ACS_09_13" : 12.394957983,
    "pct_Civ_unemp_16p_ACSMOE_09_13" : 5.069298154,
    "pct_Civ_emp_16_24_ACS_09_13" : 87.396121884,
    "pct_Civ_emp_16_24_ACSMOE_09_13" : 9.560563768,
    "pct_Civ_unemp_16_24_ACS_09_13" : 12.603878116,
    "pct_Civ_unemp_16_24_ACSMOE_09_13" : 10.271587403,
    "pct_Civ_emp_25_44_ACS_09_13" : 89.171122995,
    "pct_Civ_emp_25_44_ACSMOE_09_13" : 8.4929816091,
    "pct_Civ_unemp_25_44_ACS_09_13" : 10.828877005,
    "pct_Civ_unemp_25_44_ACSMOE_09_13" : 8.6077089772,
    "pct_Civ_emp_45_64_ACS_09_13" : 84.652278177,
    "pct_Civ_emp_45_64_ACSMOE_09_13" : 9.3677396714,
    "pct_Civ_unemp_45_64_ACS_09_13" : 15.347721823,
    "pct_Civ_unemp_45_64_ACSMOE_09_13" : 9.875068068,
    "pct_Civ_emp_65p_ACS_09_13" : 100,
    "pct_Civ_emp_65p_ACSMOE_09_13" : 100,
    "pct_Civ_unemp_65p_ACS_09_13" : 0,
    "pct_Civ_unemp_65p_ACSMOE_09_13" : 58.823529412,
    "pct_Pop_1yr_Over_ACS_09_13" : 100,
    "pct_Pop_1yr_Over_ACSMOE_09_13" : 11.79381052,
    "pct_Diff_HU_1yr_Ago_ACS_09_13" : 41.955719557,
    "pct_Diff_HU_1yr_Ago_ACSMOE_09_13" : 9.6824052142,
    "pct_Born_US_ACS_09_13" : 93.653136531,
    "pct_Born_US_ACSMOE_09_13" : 2.92368779,
    "pct_Born_foreign_ACS_09_13" : 6.3468634686,
    "pct_Born_foreign_ACSMOE_09_13" : 3.5026696785,
    "pct_US_Cit_Nat_ACS_09_13" : 1.8081180812,
    "pct_US_Cit_Nat_ACSMOE_09_13" : 1.468292423,
    "pct_NON_US_Cit_ACS_09_13" : 4.5387453875,
    "pct_NON_US_Cit_ACSMOE_09_13" : 3.1507777974,
    "pct_ENG_VW_SPAN_ACS_09_13" : 0,
    "pct_ENG_VW_SPAN_ACSMOE_09_13" : 0.6821282401,
    "pct_ENG_VW_INDOEURO_ACS_09_13" : 0.6139154161,
    "pct_ENG_VW_INDOEURO_ACSMOE_09_13" : 0.9538475829,
    "pct_ENG_VW_API_ACS_09_13" : 0,
    "pct_ENG_VW_API_ACSMOE_09_13" : 0.6821282401,
    "pct_ENG_VW_OTHER_ACS_09_13" : 0,
    "pct_ENG_VW_OTHER_ACSMOE_09_13" : 0.6821282401,
    "pct_ENG_VW_ACS_09_13" : 0.6139154161,
    "pct_ENG_VW_ACSMOE_09_13" : 1.1586859893,
    "pct_Rel_Family_HHDS_CEN_2010" : 32.02,
    "pct_Rel_Family_HHD_ACS_09_13" : 33.628922237,
    "pct_Rel_Family_HHD_ACSMOE_09_13" : 8.6365658803,
    "pct_MrdCple_HHD_CEN_2010" : 15.91,
    "pct_MrdCple_HHD_ACS_09_13" : 16.575716235,
    "pct_MrdCple_HHD_ACSMOE_09_13" : 7.1900572054,
    "pct_Not_MrdCple_HHD_CEN_2010" : 84.09,
    "pct_Not_MrdCple_HHD_ACS_09_13" : 83.424283765,
    "pct_Not_MrdCple_HHD_ACSMOE_09_13" : 10.449274716,
    "pct_Female_No_HB_CEN_2010" : 12.17,
    "pct_Female_No_HB_ACS_09_13" : 10.504774898,
    "pct_Female_No_HB_ACSMOE_09_13" : 5.329791184,
    "pct_NonFamily_HHD_CEN_2010" : 67.98,
    "pct_NonFamily_HHD_ACS_09_13" : 66.371077763,
    "pct_NonFamily_HHD_ACSMOE_09_13" : 9.302351576,
    "pct_Sngl_Prns_HHD_CEN_2010" : 52.07,
    "pct_Sngl_Prns_HHD_ACS_09_13" : 44.611186903,
    "pct_Sngl_Prns_HHD_ACSMOE_09_13" : 9.0781828997,
    "pct_HHD_PPL_Und_18_CEN_2010" : 15.77,
    "pct_HHD_PPL_Und_18_ACS_09_13" : 15.416098226,
    "pct_HHD_PPL_Und_18_ACSMOE_09_13" : 5.9576722549,
    "avg_Tot_Prns_in_HHD_CEN_2010" : 1.7152,
    "avg_Tot_Prns_in_HHD_ACS_09_13" : 1.8485675307,
    "avg_Tot_Prns_in_HHD_ACSMOE_09_13" : 0.0646139839,
    "pct_Rel_Under_6_CEN_2010" : 29.3,
    "pct_Rel_Under_6_ACS_09_13" : 22.515212982,
    "pct_Rel_Under_6_ACSMOE_09_13" : 10.805319293,
    "pct_HHD_Moved_in_ACS_09_13" : 43.383356071,
    "pct_HHD_Moved_in_ACSMOE_09_13" : 8.2368348925,
    "pct_PUB_ASST_INC_ACS_09_13" : 3.4106412005,
    "pct_PUB_ASST_INC_ACSMOE_09_13" : 3.332437409,
    "avg_Agg_HH_INC_ACS_09_13" : "$42,084",
    "avg_Agg_HH_INC_ACSMOE_09_13" : "$2,984",
    "pct_Tot_Occp_Units_CEN_2010" : 89.53,
    "pct_Tot_Occp_Units_ACS_09_13" : 87.995198079,
    "pct_Tot_Occp_Units_ACSMOE_09_13" : 6.070220381,
    "pct_Vacant_Units_CEN_2010" : 10.47,
    "pct_Vacant_Units_ACS_09_13" : 12.004801921,
    "pct_Vacant_Units_ACSMOE_09_13" : 6.3515021248,
    "pct_Renter_Occp_HU_CEN_2010" : 81.51,
    "pct_Renter_Occp_HU_ACS_09_13" : 85.402455662,
    "pct_Renter_Occp_HU_ACSMOE_09_13" : 2.3772739531,
    "pct_Owner_Occp_HU_CEN_2010" : 18.49,
    "pct_Owner_Occp_HU_ACS_09_13" : 14.597544338,
    "pct_Owner_Occp_HU_ACSMOE_09_13" : 3.9407026666,
    "pct_Single_Unit_ACS_09_13" : 6.6026410564,
    "pct_Single_Unit_ACSMOE_09_13" : 2.9339475237,
    "pct_MLT_U2_9_STRC_ACS_09_13" : 47.478991597,
    "pct_MLT_U2_9_STRC_ACSMOE_09_13" : 9.3672942348,
    "pct_MLT_U10p_ACS_09_13" : 45.918367347,
    "pct_MLT_U10p_ACSMOE_09_13" : 9.7390435468,
    "pct_Mobile_Homes_ACS_09_13" : 0,
    "pct_Mobile_Homes_ACSMOE_09_13" : 0.600240096,
    "pct_Crowd_Occp_U_ACS_09_13" : 2.5920873124,
    "pct_Crowd_Occp_U_ACSMOE_09_13" : 2.4478061625,
    "pct_NO_PH_SRVC_ACS_09_13" : 3.1377899045,
    "pct_NO_PH_SRVC_ACSMOE_09_13" : 2.375598226,
    "pct_No_Plumb_ACS_09_13" : 0,
    "pct_No_Plumb_ACSMOE_09_13" : 0.600240096,
    "pct_Recent_Built_HU_ACS_09_13" : 0,
    "pct_Recent_Built_HU_ACSMOE_09_13" : 0.600240096,
    "avg_Agg_House_Value_ACS_09_13" : "$14,047",
    "avg_Agg_House_Value_ACSMOE_09_13" : "$5,421",
    "pct_TEA_MailOutMailBack_CEN_2010" : 100,
    "pct_TEA_Update_Leave_CEN_2010" : 0,
    "pct_Census_Mail_Returns_CEN_2010" : 66.05,
    "pct_Vacant_CEN_2010" : 2.05,
    "pct_Deletes_CEN_2010" : 0,
    "pct_Census_UAA_CEN_2010" : 12.1,
    "pct_Mailback_Count_CEN_2010" : 85.85,
    "pct_FRST_FRMS_CEN_2010" : 58.97,
    "pct_RPLCMNT_FRMS_CEN_2010" : 7.08,
    "pct_BILQ_Mailout_count_CEN_2010" : 0
  }
}
